…
**Most of the workflow relies on [`MLJ.jl`](https://alan-turing-institute.github.io/MLJ.jl/dev/), _A Machine Learning Framework for Julia_.**

## Examining the dataset
The area of interest is the canton de Vaud, Switzerland. The data set is composed of 8 GeoTif rasters; 6 have continuous features:
<p align="center"> <img src="docs/data_1.png" alt="Dataset continuous" width="800"> </p>

The remaining 2 sets represent discrete or categorical classes:
<p align="center"> <img src="docs/data_2.png" alt="Dataset classes" width="800"> </p>

### Input data as `CSV` file
The `Landslides.csv` file contains a subset of the data including the dependent variable `LS` which reports the presence/absence of landslides. Using `CSV` and `DataFrames.jl` Julia packages, we can load and examine the dataset, which contains 5185 entries:
```julia
julia> df = CSV.File(input_file) |> DataFrame
5185×9 DataFrame
  Row │ dist_roads  DEM      TWI       plan_curvature  profil_curvature  Slope     Geology  LandCover  LS
      │ Float64     Float64  Float64   Float64         Float64           Float64   Int64    Int64      Int64
──────┼──────────────────────────────────────────────────────────────────────────────────────────────────────
    1 │    90.1388    957.1  10.0174      0.00257542        1.56e-5      11.0455         2         41      0
    2 │   282.843     536.1   9.21162    -0.00012923       -0.000289093   3.57188        1         21      0
    3 │    90.1388    768.1  10.0824      0.00623542       -0.00240442   44.0343         2         41      0
    4 │    79.0569    449.4   7.35267     0.00420136        0.00116142   11.3254        24         21      1
    5 │    25.0       784.8   8.60168     0.00208871       -0.00271119   19.0155         1         41      1
    6 │    25.0       991.5  13.7942     -0.00129205        0.00126791    8.28275        9         21      0
    7 │    35.3553    569.2   8.86016    -0.00346738        0.00069258   23.9199        24         31      1
    8 │    70.7107   1211.4   9.46106    -0.00180184       -0.00452195   21.2627         9         21      0
  ⋮   │     ⋮          ⋮        ⋮            ⋮                ⋮             ⋮         ⋮         ⋮        ⋮
 5178 │   550.568    1499.2   8.42238     0.00542759       -0.00193218    7.82544        2         21      0
 5179 │   195.256    1338.4   8.78591     0.00222917        0.00286882   15.9947         1         21      1
 5180 │    55.9017    495.9  10.3554     -0.000160022       0.000159998   3.41456        9         21      0
 5181 │    70.7107    443.4  11.9715     -0.000120202       3.99e-5       1.58431        9         21      0
 5182 │    55.9017    460.6  11.8599      6.4e-5            0.000383965   4.04307        9         31      0
 5183 │    55.9017   1032.8  11.8693     -0.000550569      -7.09e-5       4.75323        1         21      0
 5184 │   458.939     895.5   8.91429    -0.003389          0.00749098   33.9126        11         41      1
 5185 │   500.0       576.2   9.6554      0.000434234       0.000594097   2.29349        1         41      0
                                                                                            5169 rows omitted
```
…
